262144	15	0.131372	0
524288	15	0.265944	1
786432	15	0.402543	2
1048576	15	0.546895	2
2097152	15	1.133848	5
4194304	15	2.769453	11
8388608	15	8.188466	22
16777216	15	18.624504	44
33554432	15	39.285301	89
67108864	15	82.363023	178
134217728	15	177.023964	357
269484032	15	382.512510	718
201326592	15	276.572588	536
