4194304	5	3.467822	3
4194304	6	2.159452	4
4194304	7	0.821233	5
4194304	8	0.506544	5
4194304	8	0.313306	6
4194304	10	0.120974	7
4194304	11	0.076127	7
4194304	12	0.028896	8
4194304	13	0.017500	9
4194304	14	0.006628	10
4194304	15	0.004482	10
