4194304	5	2.916956	3
4194304	6	1.765776	4
4194304	7	0.654054	5
4194304	8	0.392127	5
4194304	8	0.243568	6
4194304	10	0.090361	7
4194304	11	0.055909	8
4194304	12	0.021601	9
4194304	13	0.014567	9
4194304	14	0.006723	10
4194304	15	0.003314	11
